…
Here’s the effect of market liberalism.

``` r
CONLDR_marketlib_ame <- svyAME(CONLDR,
                            varname = "marketlib",
                            weightvar = "pesweight",
                            diffchange = "range",
                            seed = 2019)
CONLDR_marketlib_ame$preds
#> # A tibble: 33 x 6
#>    y        marketlib predicted conf.low conf.high type       
#>    <fct>        <dbl>     <dbl>    <dbl>     <dbl> <chr>      
#>  1 Cold          -1      0.756    0.682      0.825 Probability
#>  2 Lukewarm      -1      0.0781   0.0562     0.101 Probability
#>  3 Hot           -1      0.166    0.109      0.226 Probability
#>  4 Cold          -0.8    0.698    0.634      0.764 Probability
#>  5 Lukewarm      -0.8    0.0895   0.0687     0.111 Probability
#>  6 Hot           -0.8    0.213    0.156      0.267 Probability
#>  7 Cold          -0.6    0.627    0.574      0.680 Probability
#>  8 Lukewarm      -0.6    0.101    0.0781     0.123 Probability
#>  9 Hot           -0.6    0.272    0.226      0.321 Probability
#> 10 Cold          -0.4    0.555    0.514      0.594 Probability
#> # ... with 23 more rows
…
Here’s the effect of market liberalism.

``` r
VOTE_marketlib_ame <- svyAME(
  VOTE,
  varname = "marketlib",
  weightvar = "pesweight",
  seed = 2019,
  diffchange = "range",
  design = ces19_svy_r,
  modform = "vote ~ agegrp + gender + educ + region + relig + marketlib + culturetrad")
VOTE_marketlib_ame$preds
#> # A tibble: 33 x 6
#>    y            marketlib predicted conf.low conf.high type       
#>    <fct>            <dbl>     <dbl>    <dbl>     <dbl> <chr>      
#>  1 Liberal           -1       0.500   0.408      0.595 Probability
#>  2 Conservative      -1       0.122   0.0754     0.186 Probability
#>  3 NDP               -1       0.378   0.281      0.480 Probability
#>  4 Liberal           -0.8     0.491   0.420      0.565 Probability
#>  5 Conservative      -0.8     0.170   0.120      0.232 Probability
#>  6 NDP               -0.8     0.339   0.269      0.414 Probability
#>  7 Liberal           -0.6     0.472   0.420      0.528 Probability
#>  8 Conservative      -0.6     0.229   0.181      0.282 Probability
#>  9 NDP               -0.6     0.298   0.249      0.353 Probability
#> 10 Liberal           -0.4     0.444   0.402      0.486 Probability
#> # ... with 23 more rows
…
